<svg width="24" height="24" viewBox="0 0 24 24" fill="none" xmlns="http://www.w3.org/2000/svg">
<mask id="mask0" mask-type="alpha" maskUnits="userSpaceOnUse" x="0" y="0" width="24" height="24">
<path d="M0 0H24V24H0V0Z" fill="#FF9800"/>
</mask>
<g mask="url(#mask0)">
<path d="M4 11.6471H8.70588V6H4V11.6471ZM4 18.2353H8.70588V12.5882H4V18.2353ZM9.64706 18.2353H14.3529V12.5882H9.64706V18.2353ZM15.2941 18.2353H20V12.5882H15.2941V18.2353ZM9.64706 11.6471H14.3529V6H9.64706V11.6471ZM15.2941 6V11.6471H20V6H15.2941Z" fill="#FF9800"/>
</g>
</svg>
